mktextfm 7
mktextfm 5
mktextfm at10
mktextfm 7
mktextfm 5
mktextfm 10
mktextfm 7
mktextfm 5
mktextfm at10
mktextfm at7
mktextfm at5
mktextfm at10
mktextfm at7
mktextfm at5
mktextfm at10
mktextfm at7
mktextfm at5
