\relax 
\providecommand\hyper@newdestlabel[2]{}
\providecommand\HyperFirstAtBeginDocument{\AtBeginDocument}
\HyperFirstAtBeginDocument{\ifx\hyper@anchor\@undefined
\global\let\oldcontentsline\contentsline
\gdef\contentsline#1#2#3#4{\oldcontentsline{#1}{#2}{#3}}
\global\let\oldnewlabel\newlabel
\gdef\newlabel#1#2{\newlabelxx{#1}#2}
\gdef\newlabelxx#1#2#3#4#5#6{\oldnewlabel{#1}{{#2}{#3}}}
\AtEndDocument{\ifx\hyper@anchor\@undefined
\let\contentsline\oldcontentsline
\let\newlabel\oldnewlabel
\fi}
\fi}
\global\let\hyper@last\relax 
\gdef\HyperFirstAtBeginDocument#1{#1}
\providecommand\HyField@AuxAddToFields[1]{}
\providecommand\HyField@AuxAddToCoFields[2]{}
\abx@aux@sortscheme{nty}
\abx@aux@refcontext{nty/global/}
\@writefile{toc}{\boolfalse {citerequest}\boolfalse {citetracker}\boolfalse {pagetracker}\boolfalse {backtracker}\relax }
\@writefile{lof}{\boolfalse {citerequest}\boolfalse {citetracker}\boolfalse {pagetracker}\boolfalse {backtracker}\relax }
\@writefile{lot}{\boolfalse {citerequest}\boolfalse {citetracker}\boolfalse {pagetracker}\boolfalse {backtracker}\relax }
\abx@aux@cite{hall1986social}
\abx@aux@segm{0}{0}{hall1986social}
\@writefile{toc}{\defcounter {refsection}{0}\relax }\@writefile{toc}{\contentsline {section}{\numberline {1}Project Description}{1}{section.1}}
\@writefile{toc}{\defcounter {refsection}{0}\relax }\@writefile{toc}{\contentsline {section}{\numberline {2}Pre-processing}{1}{section.2}}
\@writefile{lof}{\defcounter {refsection}{0}\relax }\@writefile{lof}{\contentsline {figure}{\numberline {1}{\ignorespaces Titanic architecture\relax }}{1}{figure.caption.1}}
\providecommand*\caption@xref[2]{\@setref\relax\@undefined{#1}}
\newlabel{fig:titanic}{{1}{1}{Titanic architecture\relax }{figure.caption.1}{}}
\@writefile{toc}{\defcounter {refsection}{0}\relax }\@writefile{toc}{\contentsline {subsection}{\numberline {2.1}name}{2}{subsection.2.1}}
\newlabel{name}{{2.1}{2}{name}{subsection.2.1}{}}
\@writefile{lot}{\defcounter {refsection}{0}\relax }\@writefile{lot}{\contentsline {table}{\numberline {1}{\ignorespaces  Example of names from dataset\relax }}{2}{table.caption.2}}
\newlabel{tab:example_of_name}{{1}{2}{Example of names from dataset\relax }{table.caption.2}{}}
\newlabel{fig:survived}{{2a}{2}{Survived based on class \relax }{figure.caption.3}{}}
\newlabel{sub@fig:survived}{{a}{2}{Survived based on class \relax }{figure.caption.3}{}}
\newlabel{fig:died}{{2b}{2}{Died based on the class\relax }{figure.caption.3}{}}
\newlabel{sub@fig:died}{{b}{2}{Died based on the class\relax }{figure.caption.3}{}}
\@writefile{lof}{\defcounter {refsection}{0}\relax }\@writefile{lof}{\contentsline {figure}{\numberline {2}{\ignorespaces Dies and survives based on the class\relax }}{2}{figure.caption.3}}
\newlabel{fig:stats_died_based_on_class}{{2}{2}{Dies and survives based on the class\relax }{figure.caption.3}{}}
\@writefile{toc}{\defcounter {refsection}{0}\relax }\@writefile{toc}{\contentsline {subsection}{\numberline {2.2}cabin}{3}{subsection.2.2}}
\newlabel{cabin}{{2.2}{3}{cabin}{subsection.2.2}{}}
\newlabel{fig:first_class_train}{{3a}{3}{First class cabins counting\relax }{figure.caption.4}{}}
\newlabel{sub@fig:first_class_train}{{a}{3}{First class cabins counting\relax }{figure.caption.4}{}}
\newlabel{fig:second_class_train}{{3b}{3}{Second class cabins counting\relax }{figure.caption.4}{}}
\newlabel{sub@fig:second_class_train}{{b}{3}{Second class cabins counting\relax }{figure.caption.4}{}}
\newlabel{fig:third_class_train}{{3c}{3}{Third class cabins counting\relax }{figure.caption.4}{}}
\newlabel{sub@fig:third_class_train}{{c}{3}{Third class cabins counting\relax }{figure.caption.4}{}}
\@writefile{lof}{\defcounter {refsection}{0}\relax }\@writefile{lof}{\contentsline {figure}{\numberline {3}{\ignorespaces Cabins counting based on the class in train set\relax }}{3}{figure.caption.4}}
\newlabel{fig:train_cabin_classes}{{3}{3}{Cabins counting based on the class in train set\relax }{figure.caption.4}{}}
\newlabel{fig:first_class_test}{{4a}{3}{First class cabins counting\relax }{figure.caption.5}{}}
\newlabel{sub@fig:first_class_test}{{a}{3}{First class cabins counting\relax }{figure.caption.5}{}}
\newlabel{fig:second_class_test}{{4b}{3}{Second class cabins counting\relax }{figure.caption.5}{}}
\newlabel{sub@fig:second_class_test}{{b}{3}{Second class cabins counting\relax }{figure.caption.5}{}}
\newlabel{fig:third_class_test}{{4c}{3}{Third class cabins counting\relax }{figure.caption.5}{}}
\newlabel{sub@fig:third_class_test}{{c}{3}{Third class cabins counting\relax }{figure.caption.5}{}}
\@writefile{lof}{\defcounter {refsection}{0}\relax }\@writefile{lof}{\contentsline {figure}{\numberline {4}{\ignorespaces Cabins counting based on the class in test set\relax }}{3}{figure.caption.5}}
\newlabel{fig:test_cabin_classes}{{4}{3}{Cabins counting based on the class in test set\relax }{figure.caption.5}{}}
\@writefile{toc}{\defcounter {refsection}{0}\relax }\@writefile{toc}{\contentsline {subsection}{\numberline {2.3}ticket and passenger id }{3}{subsection.2.3}}
\@writefile{toc}{\defcounter {refsection}{0}\relax }\@writefile{toc}{\contentsline {subsection}{\numberline {2.4}sex}{4}{subsection.2.4}}
\newlabel{fig:survived_sex}{{5a}{4}{Survived based on sex \relax }{figure.caption.6}{}}
\newlabel{sub@fig:survived_sex}{{a}{4}{Survived based on sex \relax }{figure.caption.6}{}}
\newlabel{fig:died_sex}{{5b}{4}{Died based on the sex\relax }{figure.caption.6}{}}
\newlabel{sub@fig:died_sex}{{b}{4}{Died based on the sex\relax }{figure.caption.6}{}}
\@writefile{lof}{\defcounter {refsection}{0}\relax }\@writefile{lof}{\contentsline {figure}{\numberline {5}{\ignorespaces Dies and survives based on the sex\relax }}{4}{figure.caption.6}}
\newlabel{fig:stats_died_based_on_sex}{{5}{4}{Dies and survives based on the sex\relax }{figure.caption.6}{}}
\@writefile{toc}{\defcounter {refsection}{0}\relax }\@writefile{toc}{\contentsline {subsection}{\numberline {2.5}embarked}{4}{subsection.2.5}}
\@writefile{toc}{\defcounter {refsection}{0}\relax }\@writefile{toc}{\contentsline {subsection}{\numberline {2.6}age}{4}{subsection.2.6}}
\newlabel{fig:survived_age}{{6a}{4}{Survived based on sex \relax }{figure.caption.7}{}}
\newlabel{sub@fig:survived_age}{{a}{4}{Survived based on sex \relax }{figure.caption.7}{}}
\newlabel{fig:died_age}{{6b}{4}{Died based on the sex\relax }{figure.caption.7}{}}
\newlabel{sub@fig:died_age}{{b}{4}{Died based on the sex\relax }{figure.caption.7}{}}
\@writefile{lof}{\defcounter {refsection}{0}\relax }\@writefile{lof}{\contentsline {figure}{\numberline {6}{\ignorespaces Dies and survives based on the age\relax }}{4}{figure.caption.7}}
\newlabel{fig:stats_died_based_on_age}{{6}{4}{Dies and survives based on the age\relax }{figure.caption.7}{}}
\@writefile{toc}{\defcounter {refsection}{0}\relax }\@writefile{toc}{\contentsline {subsection}{\numberline {2.7}fare}{5}{subsection.2.7}}
\@writefile{toc}{\defcounter {refsection}{0}\relax }\@writefile{toc}{\contentsline {subsection}{\numberline {2.8}pclass}{5}{subsection.2.8}}
\newlabel{fig:survived_pcclass}{{7a}{5}{Survived based on pclass \relax }{figure.caption.8}{}}
\newlabel{sub@fig:survived_pcclass}{{a}{5}{Survived based on pclass \relax }{figure.caption.8}{}}
\newlabel{fig:pcclass}{{7b}{5}{Died based on the pclass\relax }{figure.caption.8}{}}
\newlabel{sub@fig:pcclass}{{b}{5}{Died based on the pclass\relax }{figure.caption.8}{}}
\@writefile{lof}{\defcounter {refsection}{0}\relax }\@writefile{lof}{\contentsline {figure}{\numberline {7}{\ignorespaces Dies and survives based on the pclass\relax }}{5}{figure.caption.8}}
\newlabel{fig:stats_died_based_on_pclass}{{7}{5}{Dies and survives based on the pclass\relax }{figure.caption.8}{}}
\@writefile{toc}{\defcounter {refsection}{0}\relax }\@writefile{toc}{\contentsline {subsection}{\numberline {2.9}sibsp and parch}{5}{subsection.2.9}}
\newlabel{fig:survived_fam}{{8a}{5}{Survived based on family size \relax }{figure.caption.9}{}}
\newlabel{sub@fig:survived_fam}{{a}{5}{Survived based on family size \relax }{figure.caption.9}{}}
\newlabel{fig:died_fam}{{8b}{5}{Died based on the family size\relax }{figure.caption.9}{}}
\newlabel{sub@fig:died_fam}{{b}{5}{Died based on the family size\relax }{figure.caption.9}{}}
\@writefile{lof}{\defcounter {refsection}{0}\relax }\@writefile{lof}{\contentsline {figure}{\numberline {8}{\ignorespaces Dies and survives based on the family size\relax }}{5}{figure.caption.9}}
\newlabel{fig:stats_fam_sze}{{8}{5}{Dies and survives based on the family size\relax }{figure.caption.9}{}}
\abx@aux@cite{noble2006support}
\abx@aux@segm{0}{0}{noble2006support}
\@writefile{toc}{\defcounter {refsection}{0}\relax }\@writefile{toc}{\contentsline {section}{\numberline {3}Training}{6}{section.3}}
\newlabel{training}{{3}{6}{Training}{section.3}{}}
\@writefile{toc}{\defcounter {refsection}{0}\relax }\@writefile{toc}{\contentsline {subsection}{\numberline {3.1}Support Vector Machine}{6}{subsection.3.1}}
\newlabel{svm}{{3.1}{6}{Support Vector Machine}{subsection.3.1}{}}
\@writefile{lot}{\defcounter {refsection}{0}\relax }\@writefile{lot}{\contentsline {table}{\numberline {2}{\ignorespaces Grid parameters for support vector machine\relax }}{6}{table.caption.10}}
\newlabel{tab:grid_search_svm}{{2}{6}{Grid parameters for support vector machine\relax }{table.caption.10}{}}
\@writefile{toc}{\defcounter {refsection}{0}\relax }\@writefile{toc}{\contentsline {subsection}{\numberline {3.2}Neuronal Network}{6}{subsection.3.2}}
\newlabel{nn}{{3.2}{6}{Neuronal Network}{subsection.3.2}{}}
\abx@aux@refcontextdefaultsdone
\abx@aux@defaultrefcontext{0}{hall1986social}{nty/global/}
\abx@aux@defaultrefcontext{0}{noble2006support}{nty/global/}
